%TF.GenerationSoftware,KiCad,Pcbnew,7.0.10*%
%TF.CreationDate,2024-02-12T13:45:08-08:00*%
%TF.ProjectId,A2RPi_v2,41325250-695f-4763-922e-6b696361645f,rev?*%
%TF.SameCoordinates,PX9020f90PY7fc72e8*%
%TF.FileFunction,AssemblyDrawing,Top*%
%FSLAX46Y46*%
G04 Gerber Fmt 4.6, Leading zero omitted, Abs format (unit mm)*
G04 Created by KiCad (PCBNEW 7.0.10) date 2024-02-12 13:45:08*
%MOMM*%
%LPD*%
G01*
G04 APERTURE LIST*
%ADD10C,0.060000*%
%ADD11C,0.150000*%
%ADD12C,0.105000*%
%ADD13C,0.100000*%
G04 APERTURE END LIST*
D10*
X39023333Y66493073D02*
X38890000Y66683549D01*
X38794762Y66493073D02*
X38794762Y66893073D01*
X38794762Y66893073D02*
X38947143Y66893073D01*
X38947143Y66893073D02*
X38985238Y66874025D01*
X38985238Y66874025D02*
X39004285Y66854978D01*
X39004285Y66854978D02*
X39023333Y66816882D01*
X39023333Y66816882D02*
X39023333Y66759740D01*
X39023333Y66759740D02*
X39004285Y66721644D01*
X39004285Y66721644D02*
X38985238Y66702597D01*
X38985238Y66702597D02*
X38947143Y66683549D01*
X38947143Y66683549D02*
X38794762Y66683549D01*
X39175714Y66854978D02*
X39194762Y66874025D01*
X39194762Y66874025D02*
X39232857Y66893073D01*
X39232857Y66893073D02*
X39328095Y66893073D01*
X39328095Y66893073D02*
X39366190Y66874025D01*
X39366190Y66874025D02*
X39385238Y66854978D01*
X39385238Y66854978D02*
X39404285Y66816882D01*
X39404285Y66816882D02*
X39404285Y66778787D01*
X39404285Y66778787D02*
X39385238Y66721644D01*
X39385238Y66721644D02*
X39156666Y66493073D01*
X39156666Y66493073D02*
X39404285Y66493073D01*
X46008333Y58238073D02*
X45875000Y58428549D01*
X45779762Y58238073D02*
X45779762Y58638073D01*
X45779762Y58638073D02*
X45932143Y58638073D01*
X45932143Y58638073D02*
X45970238Y58619025D01*
X45970238Y58619025D02*
X45989285Y58599978D01*
X45989285Y58599978D02*
X46008333Y58561882D01*
X46008333Y58561882D02*
X46008333Y58504740D01*
X46008333Y58504740D02*
X45989285Y58466644D01*
X45989285Y58466644D02*
X45970238Y58447597D01*
X45970238Y58447597D02*
X45932143Y58428549D01*
X45932143Y58428549D02*
X45779762Y58428549D01*
X46389285Y58238073D02*
X46160714Y58238073D01*
X46275000Y58238073D02*
X46275000Y58638073D01*
X46275000Y58638073D02*
X46236904Y58580930D01*
X46236904Y58580930D02*
X46198809Y58542835D01*
X46198809Y58542835D02*
X46160714Y58523787D01*
X69148333Y69706168D02*
X69129285Y69687120D01*
X69129285Y69687120D02*
X69072143Y69668073D01*
X69072143Y69668073D02*
X69034047Y69668073D01*
X69034047Y69668073D02*
X68976904Y69687120D01*
X68976904Y69687120D02*
X68938809Y69725216D01*
X68938809Y69725216D02*
X68919762Y69763311D01*
X68919762Y69763311D02*
X68900714Y69839501D01*
X68900714Y69839501D02*
X68900714Y69896644D01*
X68900714Y69896644D02*
X68919762Y69972835D01*
X68919762Y69972835D02*
X68938809Y70010930D01*
X68938809Y70010930D02*
X68976904Y70049025D01*
X68976904Y70049025D02*
X69034047Y70068073D01*
X69034047Y70068073D02*
X69072143Y70068073D01*
X69072143Y70068073D02*
X69129285Y70049025D01*
X69129285Y70049025D02*
X69148333Y70029978D01*
X69491190Y69934740D02*
X69491190Y69668073D01*
X69395952Y70087120D02*
X69300714Y69801406D01*
X69300714Y69801406D02*
X69548333Y69801406D01*
X68513333Y57006168D02*
X68494285Y56987120D01*
X68494285Y56987120D02*
X68437143Y56968073D01*
X68437143Y56968073D02*
X68399047Y56968073D01*
X68399047Y56968073D02*
X68341904Y56987120D01*
X68341904Y56987120D02*
X68303809Y57025216D01*
X68303809Y57025216D02*
X68284762Y57063311D01*
X68284762Y57063311D02*
X68265714Y57139501D01*
X68265714Y57139501D02*
X68265714Y57196644D01*
X68265714Y57196644D02*
X68284762Y57272835D01*
X68284762Y57272835D02*
X68303809Y57310930D01*
X68303809Y57310930D02*
X68341904Y57349025D01*
X68341904Y57349025D02*
X68399047Y57368073D01*
X68399047Y57368073D02*
X68437143Y57368073D01*
X68437143Y57368073D02*
X68494285Y57349025D01*
X68494285Y57349025D02*
X68513333Y57329978D01*
X68646666Y57368073D02*
X68894285Y57368073D01*
X68894285Y57368073D02*
X68760952Y57215692D01*
X68760952Y57215692D02*
X68818095Y57215692D01*
X68818095Y57215692D02*
X68856190Y57196644D01*
X68856190Y57196644D02*
X68875238Y57177597D01*
X68875238Y57177597D02*
X68894285Y57139501D01*
X68894285Y57139501D02*
X68894285Y57044263D01*
X68894285Y57044263D02*
X68875238Y57006168D01*
X68875238Y57006168D02*
X68856190Y56987120D01*
X68856190Y56987120D02*
X68818095Y56968073D01*
X68818095Y56968073D02*
X68703809Y56968073D01*
X68703809Y56968073D02*
X68665714Y56987120D01*
X68665714Y56987120D02*
X68646666Y57006168D01*
X71688333Y15096168D02*
X71669285Y15077120D01*
X71669285Y15077120D02*
X71612143Y15058073D01*
X71612143Y15058073D02*
X71574047Y15058073D01*
X71574047Y15058073D02*
X71516904Y15077120D01*
X71516904Y15077120D02*
X71478809Y15115216D01*
X71478809Y15115216D02*
X71459762Y15153311D01*
X71459762Y15153311D02*
X71440714Y15229501D01*
X71440714Y15229501D02*
X71440714Y15286644D01*
X71440714Y15286644D02*
X71459762Y15362835D01*
X71459762Y15362835D02*
X71478809Y15400930D01*
X71478809Y15400930D02*
X71516904Y15439025D01*
X71516904Y15439025D02*
X71574047Y15458073D01*
X71574047Y15458073D02*
X71612143Y15458073D01*
X71612143Y15458073D02*
X71669285Y15439025D01*
X71669285Y15439025D02*
X71688333Y15419978D01*
X71840714Y15419978D02*
X71859762Y15439025D01*
X71859762Y15439025D02*
X71897857Y15458073D01*
X71897857Y15458073D02*
X71993095Y15458073D01*
X71993095Y15458073D02*
X72031190Y15439025D01*
X72031190Y15439025D02*
X72050238Y15419978D01*
X72050238Y15419978D02*
X72069285Y15381882D01*
X72069285Y15381882D02*
X72069285Y15343787D01*
X72069285Y15343787D02*
X72050238Y15286644D01*
X72050238Y15286644D02*
X71821666Y15058073D01*
X71821666Y15058073D02*
X72069285Y15058073D01*
X49673832Y62798334D02*
X49692880Y62779286D01*
X49692880Y62779286D02*
X49711927Y62722144D01*
X49711927Y62722144D02*
X49711927Y62684048D01*
X49711927Y62684048D02*
X49692880Y62626905D01*
X49692880Y62626905D02*
X49654784Y62588810D01*
X49654784Y62588810D02*
X49616689Y62569763D01*
X49616689Y62569763D02*
X49540499Y62550715D01*
X49540499Y62550715D02*
X49483356Y62550715D01*
X49483356Y62550715D02*
X49407165Y62569763D01*
X49407165Y62569763D02*
X49369070Y62588810D01*
X49369070Y62588810D02*
X49330975Y62626905D01*
X49330975Y62626905D02*
X49311927Y62684048D01*
X49311927Y62684048D02*
X49311927Y62722144D01*
X49311927Y62722144D02*
X49330975Y62779286D01*
X49330975Y62779286D02*
X49350022Y62798334D01*
X49711927Y63179286D02*
X49711927Y62950715D01*
X49711927Y63065001D02*
X49311927Y63065001D01*
X49311927Y63065001D02*
X49369070Y63026905D01*
X49369070Y63026905D02*
X49407165Y62988810D01*
X49407165Y62988810D02*
X49426213Y62950715D01*
D11*
X43904819Y67111667D02*
X44619104Y67111667D01*
X44619104Y67111667D02*
X44761961Y67064048D01*
X44761961Y67064048D02*
X44857200Y66968810D01*
X44857200Y66968810D02*
X44904819Y66825953D01*
X44904819Y66825953D02*
X44904819Y66730715D01*
X44904819Y67587858D02*
X43904819Y67587858D01*
X43904819Y67587858D02*
X43904819Y67968810D01*
X43904819Y67968810D02*
X43952438Y68064048D01*
X43952438Y68064048D02*
X44000057Y68111667D01*
X44000057Y68111667D02*
X44095295Y68159286D01*
X44095295Y68159286D02*
X44238152Y68159286D01*
X44238152Y68159286D02*
X44333390Y68111667D01*
X44333390Y68111667D02*
X44381009Y68064048D01*
X44381009Y68064048D02*
X44428628Y67968810D01*
X44428628Y67968810D02*
X44428628Y67587858D01*
X44904819Y69111667D02*
X44904819Y68540239D01*
X44904819Y68825953D02*
X43904819Y68825953D01*
X43904819Y68825953D02*
X44047676Y68730715D01*
X44047676Y68730715D02*
X44142914Y68635477D01*
X44142914Y68635477D02*
X44190533Y68540239D01*
X55345566Y62118334D02*
X56138900Y62118334D01*
X56138900Y62118334D02*
X56232233Y62165000D01*
X56232233Y62165000D02*
X56278900Y62211667D01*
X56278900Y62211667D02*
X56325566Y62305000D01*
X56325566Y62305000D02*
X56325566Y62491667D01*
X56325566Y62491667D02*
X56278900Y62585000D01*
X56278900Y62585000D02*
X56232233Y62631667D01*
X56232233Y62631667D02*
X56138900Y62678334D01*
X56138900Y62678334D02*
X55345566Y62678334D01*
X56325566Y63658334D02*
X56325566Y63098334D01*
X56325566Y63378334D02*
X55345566Y63378334D01*
X55345566Y63378334D02*
X55485566Y63285001D01*
X55485566Y63285001D02*
X55578900Y63191667D01*
X55578900Y63191667D02*
X55625566Y63098334D01*
X65278095Y35470181D02*
X65278095Y34660658D01*
X65278095Y34660658D02*
X65325714Y34565420D01*
X65325714Y34565420D02*
X65373333Y34517800D01*
X65373333Y34517800D02*
X65468571Y34470181D01*
X65468571Y34470181D02*
X65659047Y34470181D01*
X65659047Y34470181D02*
X65754285Y34517800D01*
X65754285Y34517800D02*
X65801904Y34565420D01*
X65801904Y34565420D02*
X65849523Y34660658D01*
X65849523Y34660658D02*
X65849523Y35470181D01*
X66278095Y35374943D02*
X66325714Y35422562D01*
X66325714Y35422562D02*
X66420952Y35470181D01*
X66420952Y35470181D02*
X66659047Y35470181D01*
X66659047Y35470181D02*
X66754285Y35422562D01*
X66754285Y35422562D02*
X66801904Y35374943D01*
X66801904Y35374943D02*
X66849523Y35279705D01*
X66849523Y35279705D02*
X66849523Y35184467D01*
X66849523Y35184467D02*
X66801904Y35041610D01*
X66801904Y35041610D02*
X66230476Y34470181D01*
X66230476Y34470181D02*
X66849523Y34470181D01*
X68143809Y66211372D02*
X68143809Y65735181D01*
X67810476Y66735181D02*
X68143809Y66211372D01*
X68143809Y66211372D02*
X68477142Y66735181D01*
X69334285Y65735181D02*
X68762857Y65735181D01*
X69048571Y65735181D02*
X69048571Y66735181D01*
X69048571Y66735181D02*
X68953333Y66592324D01*
X68953333Y66592324D02*
X68858095Y66497086D01*
X68858095Y66497086D02*
X68762857Y66449467D01*
X26336666Y72935181D02*
X26336666Y72220896D01*
X26336666Y72220896D02*
X26289047Y72078039D01*
X26289047Y72078039D02*
X26193809Y71982800D01*
X26193809Y71982800D02*
X26050952Y71935181D01*
X26050952Y71935181D02*
X25955714Y71935181D01*
X27336666Y71935181D02*
X26765238Y71935181D01*
X27050952Y71935181D02*
X27050952Y72935181D01*
X27050952Y72935181D02*
X26955714Y72792324D01*
X26955714Y72792324D02*
X26860476Y72697086D01*
X26860476Y72697086D02*
X26765238Y72649467D01*
D12*
X68648333Y66636627D02*
X69114999Y65936627D01*
X69114999Y66636627D02*
X68648333Y65936627D01*
X69748333Y65936627D02*
X69348333Y65936627D01*
X69548333Y65936627D02*
X69548333Y66636627D01*
X69548333Y66636627D02*
X69481666Y66536627D01*
X69481666Y66536627D02*
X69415000Y66469960D01*
X69415000Y66469960D02*
X69348333Y66436627D01*
D13*
%TO.C,R2*%
X38290000Y66262500D02*
X38290000Y67087500D01*
X39890000Y66262500D02*
X38290000Y66262500D01*
X38290000Y67087500D02*
X39890000Y67087500D01*
X39890000Y67087500D02*
X39890000Y66262500D01*
%TO.C,R1*%
X45275000Y58007500D02*
X45275000Y58832500D01*
X46875000Y58007500D02*
X45275000Y58007500D01*
X45275000Y58832500D02*
X46875000Y58832500D01*
X46875000Y58832500D02*
X46875000Y58007500D01*
%TO.C,C4*%
X70015000Y69450000D02*
X68415000Y69450000D01*
X68415000Y69450000D02*
X68415000Y70250000D01*
X68415000Y70250000D02*
X70015000Y70250000D01*
X70015000Y70250000D02*
X70015000Y69450000D01*
%TO.C,C3*%
X67780000Y57550000D02*
X69380000Y57550000D01*
X69380000Y57550000D02*
X69380000Y56750000D01*
X69380000Y56750000D02*
X67780000Y56750000D01*
X67780000Y56750000D02*
X67780000Y57550000D01*
%TO.C,C2*%
X70955000Y15640000D02*
X72555000Y15640000D01*
X72555000Y15640000D02*
X72555000Y14840000D01*
X72555000Y14840000D02*
X70955000Y14840000D01*
X70955000Y14840000D02*
X70955000Y15640000D01*
%TO.C,C1*%
X49930000Y63665000D02*
X49930000Y62065000D01*
X49930000Y62065000D02*
X49130000Y62065000D01*
X49130000Y62065000D02*
X49130000Y63665000D01*
X49130000Y63665000D02*
X49930000Y63665000D01*
%TO.C,U1*%
X52530000Y60915000D02*
X51555000Y61890000D01*
X60205000Y60915000D02*
X52530000Y60915000D01*
X51555000Y61890000D02*
X51555000Y64815000D01*
X51555000Y64815000D02*
X60205000Y64815000D01*
X60205000Y64815000D02*
X60205000Y60915000D01*
%TO.C,U2*%
X74930000Y17085000D02*
X74930000Y52765000D01*
X74930000Y52765000D02*
X57150000Y52765000D01*
X73405000Y18145000D02*
X72405000Y17145000D01*
X73405000Y52705000D02*
X73405000Y18145000D01*
X72405000Y17145000D02*
X58675000Y17145000D01*
X58675000Y17145000D02*
X58675000Y52705000D01*
X58675000Y52705000D02*
X73405000Y52705000D01*
X57150000Y17085000D02*
X74930000Y17085000D01*
X57150000Y52765000D02*
X57150000Y17085000D01*
%TO.C,Y1*%
X74470000Y61590000D02*
X62870000Y61590000D01*
X74470000Y61690000D02*
X74470000Y61590000D01*
X74120000Y61690000D02*
X74120000Y74690000D01*
X74120000Y74690000D02*
X63220000Y74690000D01*
X71120000Y60690000D02*
X71120000Y59690000D01*
X71120000Y61690000D02*
X71120000Y60690000D01*
X66220000Y60690000D02*
X66220000Y59690000D01*
X66220000Y61690000D02*
X66220000Y60690000D01*
X63220000Y61690000D02*
X74120000Y61690000D01*
X63220000Y74690000D02*
X63220000Y61690000D01*
X62870000Y61590000D02*
X62870000Y61690000D01*
X62870000Y61690000D02*
X74470000Y61690000D01*
%TO.C,J1*%
X50800000Y74930000D02*
X52070000Y73660000D01*
X1270000Y74930000D02*
X50800000Y74930000D01*
X52070000Y73660000D02*
X52070000Y69850000D01*
X52070000Y69850000D02*
X1270000Y69850000D01*
X1270000Y69850000D02*
X1270000Y74930000D01*
%TO.C,X1*%
X70815000Y65205000D02*
X70615000Y65005000D01*
X70815000Y66505000D02*
X69815000Y67505000D01*
X70815000Y67305000D02*
X70815000Y65205000D01*
X70615000Y65005000D02*
X67815000Y65005000D01*
X70615000Y67505000D02*
X70815000Y67305000D01*
X67815000Y65005000D02*
X67615000Y65205000D01*
X67815000Y67505000D02*
X70615000Y67505000D01*
X67615000Y65205000D02*
X67615000Y67305000D01*
X67615000Y67305000D02*
X67815000Y67505000D01*
%TD*%
M02*
